<svg width="56" height="56" viewBox="0 0 56 56" fill="none" xmlns="http://www.w3.org/2000/svg">
<g filter="url(#filter0_d_1_120)">
<circle cx="28" cy="28" r="23" fill="#EBEDF9"/>
<path d="M34.5 25.4019C36.5 26.5566 36.5 29.4434 34.5 30.5981L27 34.9282C25 36.0829 22.5 34.6395 22.5 32.3301L22.5 23.6699C22.5 21.3605 25 19.9171 27 21.0718L34.5 25.4019Z" fill="#212121"/>
</g>
<defs>
<filter id="filter0_d_1_120" x="0" y="0" width="56" height="56" filterUnits="userSpaceOnUse" color-interpolation-filters="sRGB">
<feFlood flood-opacity="0" result="BackgroundImageFix"/>
<feColorMatrix in="SourceAlpha" type="matrix" values="0 0 0 0 0 0 0 0 0 0 0 0 0 0 0 0 0 0 127 0" result="hardAlpha"/>
<feOffset/>
<feGaussianBlur stdDeviation="2.5"/>
<feComposite in2="hardAlpha" operator="out"/>
<feColorMatrix type="matrix" values="0 0 0 0 0 0 0 0 0 0 0 0 0 0 0 0 0 0 0.55 0"/>
<feBlend mode="normal" in2="BackgroundImageFix" result="effect1_dropShadow_1_120"/>
<feBlend mode="normal" in="SourceGraphic" in2="effect1_dropShadow_1_120" result="shape"/>
</filter>
</defs>
</svg>
